C:\Users\lshra\IdeaProjects\contextmessaging-server-rest\src\main\java\hello\MessageSender.java
C:\Users\lshra\IdeaProjects\contextmessaging-server-rest\src\main\java\hello\UserLocationRepository.java
C:\Users\lshra\IdeaProjects\contextmessaging-server-rest\src\main\java\hello\GroupRepository.java
C:\Users\lshra\IdeaProjects\contextmessaging-server-rest\src\main\java\hello\MessagingToken.java
C:\Users\lshra\IdeaProjects\contextmessaging-server-rest\src\main\java\hello\controllers\GoalTriggerController.java
C:\Users\lshra\IdeaProjects\contextmessaging-server-rest\src\main\java\hello\controllers\WalkingGoalController.java
C:\Users\lshra\IdeaProjects\contextmessaging-server-rest\src\main\java\hello\MobileVerificationRepository.java
C:\Users\lshra\IdeaProjects\contextmessaging-server-rest\src\main\java\hello\MessagingTokenRepository.java
C:\Users\lshra\IdeaProjects\contextmessaging-server-rest\src\main\java\hello\Utils\RandomGenerator.java
C:\Users\lshra\IdeaProjects\contextmessaging-server-rest\src\main\java\hello\controllers\UserController.java
C:\Users\lshra\IdeaProjects\contextmessaging-server-rest\src\main\java\hello\controllers\LocationTriggerController.java
C:\Users\lshra\IdeaProjects\contextmessaging-server-rest\src\main\java\hello\UserLocation.java
C:\Users\lshra\IdeaProjects\contextmessaging-server-rest\src\main\java\hello\UserRegistrationTokenRepository.java
C:\Users\lshra\IdeaProjects\contextmessaging-server-rest\src\main\java\hello\GoalTrigger.java
C:\Users\lshra\IdeaProjects\contextmessaging-server-rest\src\main\java\hello\controllers\StepsGoalController.java
C:\Users\lshra\IdeaProjects\contextmessaging-server-rest\src\main\java\hello\User.java
C:\Users\lshra\IdeaProjects\contextmessaging-server-rest\src\main\java\hello\controllers\MessagingTokenController.java
C:\Users\lshra\IdeaProjects\contextmessaging-server-rest\src\main\java\hello\controllers\TimeTriggerController.java
C:\Users\lshra\IdeaProjects\contextmessaging-server-rest\src\main\java\hello\UserGroup.java
C:\Users\lshra\IdeaProjects\contextmessaging-server-rest\src\main\java\hello\MessageSenderRepository.java
C:\Users\lshra\IdeaProjects\contextmessaging-server-rest\src\main\java\hello\GoalTriggerRepository.java
C:\Users\lshra\IdeaProjects\contextmessaging-server-rest\src\main\java\hello\AimInvitation.java
C:\Users\lshra\IdeaProjects\contextmessaging-server-rest\src\main\java\hello\controllers\MobileVerificationController.java
C:\Users\lshra\IdeaProjects\contextmessaging-server-rest\src\main\java\hello\TimeTrigger.java
C:\Users\lshra\IdeaProjects\contextmessaging-server-rest\src\main\java\hello\controllers\GoalController.java
C:\Users\lshra\IdeaProjects\contextmessaging-server-rest\src\main\java\hello\GoalRepository.java
C:\Users\lshra\IdeaProjects\contextmessaging-server-rest\src\main\java\hello\UserRepository.java
C:\Users\lshra\IdeaProjects\contextmessaging-server-rest\src\main\java\hello\models\SMSDetails.java
C:\Users\lshra\IdeaProjects\contextmessaging-server-rest\src\main\java\hello\UserGroupRepository.java
C:\Users\lshra\IdeaProjects\contextmessaging-server-rest\src\main\java\hello\Application.java
C:\Users\lshra\IdeaProjects\contextmessaging-server-rest\src\main\java\hello\AimInvitationRepository.java
C:\Users\lshra\IdeaProjects\contextmessaging-server-rest\src\main\java\hello\Utils\Test.java
C:\Users\lshra\IdeaProjects\contextmessaging-server-rest\src\main\java\hello\controllers\MessageRecipientController.java
C:\Users\lshra\IdeaProjects\contextmessaging-server-rest\src\main\java\hello\StepsGoal.java
C:\Users\lshra\IdeaProjects\contextmessaging-server-rest\src\main\java\hello\controllers\GroupController.java
C:\Users\lshra\IdeaProjects\contextmessaging-server-rest\src\main\java\hello\controllers\UserLocationController.java
C:\Users\lshra\IdeaProjects\contextmessaging-server-rest\src\main\java\hello\MessageRecipient.java
C:\Users\lshra\IdeaProjects\contextmessaging-server-rest\src\main\java\hello\Group.java
C:\Users\lshra\IdeaProjects\contextmessaging-server-rest\src\main\java\hello\UserRegistrationToken.java
C:\Users\lshra\IdeaProjects\contextmessaging-server-rest\src\main\java\hello\MessageRecipientRepository.java
C:\Users\lshra\IdeaProjects\contextmessaging-server-rest\src\main\java\hello\Utils\Util.java
C:\Users\lshra\IdeaProjects\contextmessaging-server-rest\src\main\java\hello\controllers\ActivityTriggerController.java
C:\Users\lshra\IdeaProjects\contextmessaging-server-rest\src\main\java\hello\ActivityTriggerRepository.java
C:\Users\lshra\IdeaProjects\contextmessaging-server-rest\src\main\java\hello\StepsGoalRepository.java
C:\Users\lshra\IdeaProjects\contextmessaging-server-rest\src\main\java\hello\LocationTriggerRepository.java
C:\Users\lshra\IdeaProjects\contextmessaging-server-rest\src\main\java\hello\WalkingGoalRepository.java
C:\Users\lshra\IdeaProjects\contextmessaging-server-rest\src\main\java\hello\controllers\AimInvitationController.java
C:\Users\lshra\IdeaProjects\contextmessaging-server-rest\src\main\java\hello\controllers\UserGroupController.java
C:\Users\lshra\IdeaProjects\contextmessaging-server-rest\src\main\java\hello\WalkingGoal.java
C:\Users\lshra\IdeaProjects\contextmessaging-server-rest\src\main\java\hello\controllers\MessageSenderController.java
C:\Users\lshra\IdeaProjects\contextmessaging-server-rest\src\main\java\hello\LocationTrigger.java
C:\Users\lshra\IdeaProjects\contextmessaging-server-rest\src\main\java\hello\TimeTriggerRepository.java
C:\Users\lshra\IdeaProjects\contextmessaging-server-rest\src\main\java\hello\ActivityTrigger.java
C:\Users\lshra\IdeaProjects\contextmessaging-server-rest\src\main\java\hello\Goal.java
C:\Users\lshra\IdeaProjects\contextmessaging-server-rest\src\main\java\hello\controllers\UserRegistrationController.java
C:\Users\lshra\IdeaProjects\contextmessaging-server-rest\src\main\java\hello\MobileVerification.java
